<?xml version="1.0" encoding="UTF-8" standalone="no"?>
<svg
   xmlns:dc="http://purl.org/dc/elements/1.1/"
   xmlns:cc="http://creativecommons.org/ns#"
   xmlns:rdf="http://www.w3.org/1999/02/22-rdf-syntax-ns#"
   xmlns:svg="http://www.w3.org/2000/svg"
   xmlns="http://www.w3.org/2000/svg"
   id="svg4"
   version="1.1"
   viewBox="0 0 512 512"
   height="32"
     width="48"
   role="img"
   aria-label="Twitter"
   class="{{ .class }}">
  <metadata
     id="metadata10">
    <rdf:RDF>
      <cc:Work
         rdf:about="">
        <dc:format>image/svg+xml</dc:format>
        <dc:type
           rdf:resource="http://purl.org/dc/dcmitype/StillImage" />
        <dc:title></dc:title>
      </cc:Work>
    </rdf:RDF>
  </metadata>
  <defs
     id="defs8">
    <filter
       id="filter16"
       style="color-interpolation-filters:sRGB;">
      <feColorMatrix
         id="feColorMatrix12"
         result="color1"
         values="180"
         type="hueRotate" />
      <feColorMatrix
         id="feColorMatrix14"
         result="color2"
         values="-1 0 0 0 1 0 -1 0 0 1 0 0 -1 0 1 -0.21 -0.72 -0.07 2 0 " />
    </filter>
  </defs>
  <path
     style="filter:url(#filter16)"
     id="path2"
     d="M437 152a72 72 0 0 1-40 12 72 72 0 0 0 32-40 72 72 0 0 1-45 17 72 72 0 0 0-122 65 200 200 0 0 1-145-74 72 72 0 0 0 22 94 72 72 0 0 1-32-7 72 72 0 0 0 56 69 72 72 0 0 1-32 1 72 72 0 0 0 67 50 200 200 0 0 1-105 29 200 200 0 0 0 309-179 200 200 0 0 0 35-37" />
</svg>
